{
  "images" : [
    {
      "idiom" : "universal",
      "scale" : "1x",
      "filename" : "@1x_ic_settings_evaluation-25.png"
    },
    {
      "idiom" : "universal",
      "scale" : "2x",
      "filename" : "@2x_ic_settings_evaluation-50.png"
    },
    {
      "idiom" : "universal",
      "scale" : "3x",
      "filename" : "@3x_ic_settings_evaluation-75.png"
    }
  ],
  "info" : {
    "version" : 1,
    "author" : "xcode"
  }
}