{
  "images" : [
    {
      "idiom" : "universal",
      "scale" : "1x",
      "filename" : "PopMenu-Cheap-Button.png"
    },
    {
      "idiom" : "universal",
      "scale" : "2x",
      "filename" : "@2x_ic_menu_price-50.png"
    },
    {
      "idiom" : "universal",
      "scale" : "3x",
      "filename" : "PopMenu-Cheap-Button@3x.png"
    }
  ],
  "info" : {
    "version" : 1,
    "author" : "xcode"
  }
}