{
  "images" : [
    {
      "idiom" : "universal",
      "scale" : "1x",
      "filename" : "@1x_ic_navibar_show02-40.png"
    },
    {
      "idiom" : "universal",
      "scale" : "2x",
      "filename" : "2x_actionbar_show02.png"
    },
    {
      "idiom" : "universal",
      "scale" : "3x",
      "filename" : "@3x_ic_navibar_show02-40@3x.png"
    }
  ],
  "info" : {
    "version" : 1,
    "author" : "xcode"
  }
}