{
  "images" : [
    {
      "idiom" : "universal",
      "scale" : "1x",
      "filename" : "@1x_ic_ActionBar_show03 (1).png"
    },
    {
      "idiom" : "universal",
      "scale" : "2x",
      "filename" : "@2x_ic_ActionBar_show03 (2).png"
    },
    {
      "idiom" : "universal",
      "scale" : "3x",
      "filename" : "@3x_ic_ActionBar_show03 (1).png"
    }
  ],
  "info" : {
    "version" : 1,
    "author" : "xcode"
  }
}